commit 8f53b78dc9dcbba19270ff77b6a056a7e75e5a56
Author: Warfields <samuel.warfield2@gmail.com>
Date:   Wed Apr 18 23:04:44 2018 -0600

    Got bare bones responses out of the board!

commit 4103ea7cc6e00c50d6f1463108db509e19db06b8
Author: Warfields <samuel.warfield@gmail.com>
Date:   Wed Apr 18 16:09:34 2018 -0600

    Redid how we loaded the splash screen

commit a7406f93b081460ebc87def8825eee2b96bca675
Author: Warfields <samuel.warfield@gmail.com>
Date:   Wed Apr 18 13:36:24 2018 -0600

    Updated panel loading order

commit f85fa3ede9bd41491f3ad364f07525e807dbcdd3
Author: Warfields <samuel.warfield@gmail.com>
Date:   Tue Apr 17 22:30:24 2018 -0600

    The joke update, run detective menu

commit 2d0c9de3d899cbe5069d863f41d46c4a9129fe41
Author: Ross Starritt <rstarritt@mymail.mines.edu>
Date:   Tue Apr 17 16:55:02 2018 -0600

    Implemented die in game and gui

commit 8e399668450993224746ce0c884a9cdb5ff3de91
Author: Warfields <samuel.warfield@gmail.com>
Date:   Tue Apr 17 16:39:34 2018 -0600

    Refactored names and added comments

commit 8d238120fe5d2375220da65666401f2058d0cbb2
Author: Warfields <samuel.warfield@gmail.com>
Date:   Tue Apr 17 16:26:55 2018 -0600

    We have cards now!

commit 1592ef3921910a6950e2751833bdb15285c1bbcf
Author: Ross Starritt <rstarritt@mymail.mines.edu>
Date:   Tue Apr 17 16:29:00 2018 -0600

    fixed a type mismatch and completed splashscreen

commit b2244a101ae0402262693ddf653e4d3a9efe706d
Author: Ross Starritt <rstarritt@mymail.mines.edu>
Date:   Tue Apr 17 16:22:07 2018 -0600

    added a file for the splash screen

commit ab10d077ca5322b4bf1d8d518d82c65a93c07147
Merge: 5db5a3c b8961e5
Author: Ross Starritt <rstarritt@mymail.mines.edu>
Date:   Tue Apr 17 00:17:35 2018 -0600

    Merge branch 'master' of https://github.com/Warfields/Clue

commit 5db5a3c0eaa7b85c09b49db1af2a77c0fcb70da2
Author: Ross Starritt <rstarritt@mymail.mines.edu>
Date:   Tue Apr 17 00:17:28 2018 -0600

    Rooms implemented in detective notes

commit b8961e5a6a6a782a39933a52ec476a5257db2461
Author: Warfields <samuel.warfield@gmail.com>
Date:   Tue Apr 17 00:15:45 2018 -0600

    Finished my part of Detective notes(Weapons)

commit cf6d436f14674839a30c23b2eb8ffcd4a47caf72
Author: Ross Starritt <rstarritt@mymail.mines.edu>
Date:   Tue Apr 17 00:06:42 2018 -0600

    set up detectiveNotes so two people can work at once

commit d5b01deb0f1d1ab4bf1873436dfd7d61f332a3d9
Author: Warfields <samuel.warfield@gmail.com>
Date:   Mon Apr 16 23:59:15 2018 -0600

    Removed Todos

commit d0b0b47a480defd9d38e3061c52201e8d7217dd6
Merge: 6e24b33 262086b
Author: Ross Starritt <rstarritt@mymail.mines.edu>
Date:   Mon Apr 16 23:59:46 2018 -0600

    Merge branch 'master' of https://github.com/Warfields/Clue

commit 6e24b334b45eb2d57a93965decd293ef135403bd
Author: Ross Starritt <rstarritt@mymail.mines.edu>
Date:   Mon Apr 16 23:59:22 2018 -0600

    the detective thing is coming along nicely

commit 262086b104057b943bd80129dd735b6bc0d592aa
Author: Warfields <samuel.warfield@gmail.com>
Date:   Mon Apr 16 23:52:51 2018 -0600

    Board Drawing is now done!

commit d939a9929976e00acd1b27ca490322cc13f8bf3a
Author: Warfields <samuel.warfield@gmail.com>
Date:   Mon Apr 16 23:00:33 2018 -0600

    COLORS AND DOORS

commit 7b126fae889e55cf1817fa1f08af721101ce2fbe
Author: Ross Starritt <rstarritt@mymail.mines.edu>
Date:   Mon Apr 16 23:01:49 2018 -0600

    begining the implementation of detective notes

commit 5ab277ee19618cf262859d1f8a4e2b3572b5d0ae
Merge: 5c68f10 0339ef7
Author: Ross Starritt <rstarritt@mymail.mines.edu>
Date:   Mon Apr 16 22:38:19 2018 -0600

    fixed merge conflict

commit 5c68f103eb0b692e45289cb98fe0f6a122e23b75
Author: Ross Starritt <rstarritt@mymail.mines.edu>
Date:   Mon Apr 16 22:36:51 2018 -0600

    Added file item and implemented exit

commit 0339ef7c4d8d7ffa5f08e9702864776a50d0f660
Author: Warfields <samuel.warfield@gmail.com>
Date:   Mon Apr 16 22:36:42 2018 -0600

    now centered

commit de8ab7ebbe0d0339dccb926b3ca98cb75be9e87f
Author: Warfields <samuel.warfield@gmail.com>
Date:   Mon Apr 16 22:35:48 2018 -0600

    Basic shading should will work

commit 14aad629fc20b4bb115c27dd9efccb68d4a235b2
Author: Warfields <samuel.warfield@gmail.com>
Date:   Mon Apr 16 22:33:38 2018 -0600

    Basic shading should work now

commit 5e1dde0c7dd067a6541a468ad846ee206508da74
Author: Warfields <samuel.warfield@gmail.com>
Date:   Mon Apr 16 22:17:34 2018 -0600

    Started Boardcell.draw()

commit 3d7c9a6f1a2a40ea886ec9c8cc06e2952d26871f
Author: Ross Starritt <rstarritt@mymail.mines.edu>
Date:   Mon Apr 16 22:16:54 2018 -0600

    Worked on putting together existing panels for main gui

commit ca4c4bb3c8ee11b9fb372fe7a107572d24b433a9
Author: Ross Starritt <rstarritt@mymail.mines.edu>
Date:   Mon Apr 16 22:08:37 2018 -0600

    added comments to HandGUI

commit c11dffaf5680f3c322da5ca96aafeeaed3566de6
Merge: 5b4d889 2b5f804
Author: Ross Starritt <rstarritt@mymail.mines.edu>
Date:   Mon Apr 16 22:04:49 2018 -0600

    Fixed a merge conflict

commit 5b4d8894b1af1d19b15c271bbc4acb8da17db4d4
Author: Ross Starritt <rstarritt@mymail.mines.edu>
Date:   Mon Apr 16 22:02:14 2018 -0600

    Wrote the hand panel. It will need extra functions added later when it is integrated with the cards and functionality is added.

commit 2b5f80410d84ba3181c5d41859c964a904f7871f
Author: Warfields <samuel.warfield@gmail.com>
Date:   Mon Apr 16 22:01:57 2018 -0600

    Add some things to the main gui and board

commit 206fb0a5d905e9a9fd60a8fe46dc227673fefc67
Author: Warfields <samuel.warfield@gmail.com>
Date:   Mon Apr 16 21:32:46 2018 -0600

    Added Jframe for Detective notes

commit 75713c138e1149fa19da1738c214306e1542bb0f
Author: Warfields <samuel.warfield@gmail.com>
Date:   Mon Apr 16 21:25:46 2018 -0600

    New gui package for my sanity

commit 3b8f84f4b0e38c8ca7c10056128fcee0d77c790a
Author: Warfields <samuel.warfield@gmail.com>
Date:   Mon Apr 16 21:23:43 2018 -0600

    Added some comments and refacteer some names

commit 0a7566b1337390d32b59f898e23bb65a0058a2e5
Author: Warfields <samuel.warfield@gmail.com>
Date:   Thu Apr 12 16:27:33 2018 -0600

    Added Skeletons

commit 32ca7fcb29f8b9b15ceeb6953369be6029e57335
Author: Ross Starritt <rstarritt@mymail.mines.edu>
Date:   Thu Apr 12 16:15:40 2018 -0600

    Adjusted the size of the guess field in the bottom panel of the gui

commit d8e5cf563ae97d572dde55ceed15cb9fa7d3f116
Author: Ross Starritt <rstarritt@mymail.mines.edu>
Date:   Wed Apr 11 17:42:23 2018 -0600

    Removed unneeded import

commit cf008a777700c713d8dbbbc8d6a84e5af75e3ee0
Author: Ross Starritt <rstarritt@mymail.mines.edu>
Date:   Wed Apr 11 17:40:18 2018 -0600

    control panel GUI designed, but not functional

commit 99a1d972dfa380e43427db9b397091a2701e1653
Author: Ross Starritt <rstarritt@mymail.mines.edu>
Date:   Wed Apr 11 16:25:22 2018 -0600

    Example code is in the gui file

commit abf6ee8bc72df65dced35c9ea3ac2611f811f019
Author: Ross Starritt <rstarritt@mymail.mines.edu>
Date:   Wed Apr 11 16:18:17 2018 -0600

    created gui file

commit 136c4aba2eaf91e40b3607f9fbe8d36d4ed78db4
Author: Warfields <samuel.warfield@gmail.com>
Date:   Wed Apr 11 14:23:50 2018 -0600

    ALL TESTS PASSING :D

commit 5feb8b51b542f625eb1501f6e50274489977c7bf
Author: Warfields <samuel.warfield@gmail.com>
Date:   Wed Apr 11 13:23:41 2018 -0600

    All JUnit tests are now passing

commit b9e5a16f073f9516a4b615e4363021bf09acc39c
Author: Warfields <samuel.warfield@gmail.com>
Date:   Wed Apr 11 13:16:12 2018 -0600

    Implemented Player.disprovesuggestion()

commit 2346bdc5352703446d5ea8cbe36238fc450a490f
Author: Warfields <samuel.warfield@gmail.com>
Date:   Wed Apr 11 12:39:05 2018 -0600

    board.handleSuggestion() should word ass soon as Player.disproveSuggestion() is implemented

commit 921f4cbb5be227e8dd36c1f06803e3f1477acf67
Author: Warfields <samuel.warfield@gmail.com>
Date:   Wed Apr 11 11:49:37 2018 -0600

    Finished JUnit tests for board.handleSuggestion()

commit dbb122235d2f021e071044c6b7f4f3929c3c3041
Author: Warfields <samuel.warfield@gmail.com>
Date:   Wed Apr 11 11:03:35 2018 -0600

    Fixed all errors

commit 52d95507a0c6ae2bdfa37d27542b9223a2c6baa7
Author: Warfields <samuel.warfield@gmail.com>
Date:   Wed Apr 11 10:56:26 2018 -0600

    Added more JUnit Tests and JavaDocs

commit 3637945c0aaacc5af43445e4dbce17b892ae20cf
Author: Warfields <samuel.warfield@gmail.com>
Date:   Wed Apr 11 10:29:47 2018 -0600

    Added new test case to suggestion handling

commit 7040722004a5cd5d13a21a7351a358079f15f2c7
Author: Warfields <samuel.warfield@gmail.com>
Date:   Tue Apr 10 23:54:54 2018 -0600

    More work

commit 41cea22cfa9d00a54138356e0d6a576880fb439d
Author: Ross Starritt <rstarritt@mymail.mines.edu>
Date:   Tue Apr 10 23:54:27 2018 -0600

    Suggestion test fully works and the code is good

commit 52920cdb6d2a8d6dcb802f8b933188ecc1095362
Author: Warfields <samuel.warfield@gmail.com>
Date:   Tue Apr 10 23:48:52 2018 -0600

    Further Progress on JUnit

commit e349d9d3e557178d8d494653eb4da73c6de40f63
Author: Ross Starritt <rstarritt@mymail.mines.edu>
Date:   Tue Apr 10 23:48:16 2018 -0600

    wrote test for multiple unseen people

commit dc064b2b0dd98a56dc79a7fb54afeccd49e97c69
Author: Warfields <samuel.warfield@gmail.com>
Date:   Tue Apr 10 23:38:12 2018 -0600

    Fixed a line

commit f76766d27928d2562248d94360f2f18f4021fb16
Author: Warfields <samuel.warfield@gmail.com>
Date:   Tue Apr 10 23:36:20 2018 -0600

    Added Layout

commit 369b11058116d3db1ffded013e31c461e1cfeef4
Author: Ross Starritt <rstarritt@mymail.mines.edu>
Date:   Tue Apr 10 23:35:43 2018 -0600

    I finally got the test to pass. turns out the for loop was broken. CPUSuggestionTest

commit 6c857c07a44d49005d5299f8f404058d0193fe94
Author: Ross Starritt <rstarritt@mymail.mines.edu>
Date:   Tue Apr 10 22:52:53 2018 -0600

    Realized I was writting code for accusations when I should have been writting for suggestions. Refactored.

commit 5c11dfe8f2f734d3269b16378f4a385f6abda5a7
Merge: f2e61bc 4880dea
Author: Ross Starritt <rstarritt@mymail.mines.edu>
Date:   Tue Apr 10 22:01:30 2018 -0600

    Merge branch 'master' of https://github.com/Warfields/Clue

commit f2e61bccb8ae3f6a150288d347c67ce7fb227536
Author: Ross Starritt <rstarritt@mymail.mines.edu>
Date:   Tue Apr 10 22:01:23 2018 -0600

    stuff has been done

commit 4880dead26c9f303016cb51e3409e31bdd1f67a7
Author: Warfields <samuel.warfield@gmail.com>
Date:   Tue Apr 10 22:01:01 2018 -0600

    Ok JUnit does not take 2 seconds

commit 594480b12d422837fea70926c1433babcdb8c9e6
Merge: 6397e18 305b32e
Author: Ross Starritt <rstarritt@mymail.mines.edu>
Date:   Tue Apr 10 21:50:41 2018 -0600

    Merge branch 'master' of https://github.com/Warfields/Clue

commit 6397e18c36fefb7fe22e865a396d68ebd021616b
Author: Ross Starritt <rstarritt@mymail.mines.edu>
Date:   Tue Apr 10 21:50:30 2018 -0600

    gotta pull because my code may require Sam's code

commit 305b32e7ee0ac302c8593b0ba45a44cf0f3d5988
Author: Warfields <samuel.warfield@gmail.com>
Date:   Tue Apr 10 21:48:55 2018 -0600

    Made a small booboo

commit 99c2c05a63b011a9d02ae1402638aba5a8b3ffe3
Author: Warfields <samuel.warfield@gmail.com>
Date:   Tue Apr 10 21:46:02 2018 -0600

    HALLALOAKSAJDKJSADH THANK THE LORD FIGURED OUT THIS BUG

commit a09a94736288ea836bafa0084fa957e010f022b8
Author: Ross Starritt <rstarritt@mymail.mines.edu>
Date:   Tue Apr 10 21:39:37 2018 -0600

    working on creating accusation for cpu

commit d65a4006ee4e1da76bbd04effdb44cd7db59fc06
Author: Ross Starritt <rstarritt@mymail.mines.edu>
Date:   Tue Apr 10 21:28:08 2018 -0600

    Test for accusation initially written.

commit 563b674a8c9a9f8d19b1317b6c4c8442748ed373
Author: Warfields <samuel.warfield@gmail.com>
Date:   Tue Apr 10 20:15:52 2018 -0600

    Got some stuff working

commit c97b7cdfeccb5f24ec758d2e810f83977250bb88
Author: Ross Starritt <rstarritt@mymail.mines.edu>
Date:   Tue Apr 10 20:15:04 2018 -0600

    Fixed an extra return in a config file

commit 44fccfac8370a61c48500e973fa692b4ab015ca5
Author: Ross Starritt <rstarritt@mymail.mines.edu>
Date:   Tue Apr 10 20:08:54 2018 -0600

    altered an old test for compatability and continued work on a new test

commit dcf07393da8573340280e1f89ca215c430603190
Merge: a7b6b6a bc5ad87
Author: Ross Starritt <rstarritt@mymail.mines.edu>
Date:   Tue Apr 10 19:46:17 2018 -0600

    Merge branch 'master' of https://github.com/Warfields/Clue

commit a7b6b6a59a870b515befd027e1bc92ed1f4dbd36
Author: Ross Starritt <rstarritt@mymail.mines.edu>
Date:   Tue Apr 10 19:46:10 2018 -0600

    started a new test

commit bc5ad876768ac524222cf2db0769f1596a330759
Author: Warfields <samuel.warfield@gmail.com>
Date:   Tue Apr 10 19:41:05 2018 -0600

    JUnit Test for room reentry is done

commit 6d2b9ca7e3f811462b0c2b3b37be54d37a2c40e0
Author: Ross Starritt <rstarritt@mymail.mines.edu>
Date:   Tue Apr 10 19:36:03 2018 -0600

    removed a default test which only fails

commit f60f37a36628ea1449b7507e7c1c321b1d7f38c4
Author: Ross Starritt <rstarritt@mymail.mines.edu>
Date:   Tue Apr 10 19:30:33 2018 -0600

    checkAccusation passing

commit 423e093b17a7f7baa63e12679a81c23366d3ec74
Author: Warfields <samuel.warfield@gmail.com>
Date:   Tue Apr 10 19:25:58 2018 -0600

    removed some usless comments

commit 0a43f63024213882429438bae37c44defb620778
Author: Warfields <samuel.warfield@gmail.com>
Date:   Tue Apr 10 19:11:17 2018 -0600

    Add code to make JUNIT pass

commit 2604fcb1ced9f915999eb73a58013dac63793c2a
Author: Warfields <samuel.warfield@gmail.com>
Date:   Tue Apr 10 19:00:14 2018 -0600

    Finished Working on more Room JUnit Tests

commit 6d438863cb2e59af04205aabc9972d458e65d1ae
Author: Ross Starritt <rstarritt@mymail.mines.edu>
Date:   Tue Apr 10 19:26:10 2018 -0600

    fixed a null pointer

commit 9e0b302d61e1eae4e72a41f22f08dcade2e8201c
Author: Ross Starritt <rstarritt@mymail.mines.edu>
Date:   Tue Apr 10 18:47:17 2018 -0600

    Test for checkAccusation written.

commit 39e953f79bc0604d5397af3e11b070cb33762807
Author: Warfields <samuel.warfield@gmail.com>
Date:   Tue Apr 10 18:46:26 2018 -0600

    JUnit for room choices for CPU Players Written

commit 4665e95c639578732c42dcd7a3d1ee915a7cb551
Author: Warfields <samuel.warfield@gmail.com>
Date:   Tue Apr 10 18:19:39 2018 -0600

    CPU Location choosing impletmented

commit f713ee5587fedc30ed837cad271d6ab7c3046aab
Author: Warfields <samuel.warfield@gmail.com>
Date:   Tue Apr 10 17:58:26 2018 -0600

    Finished JUnit test for CPU Non Room Locations

commit 424532fa117da3beddb50e868b7bb379c4ba758c
Author: Warfields <samuel.warfield@gmail.com>
Date:   Tue Apr 10 16:48:32 2018 -0600

    Added gettters and setters to Player

commit 65624469e2bdb846eff816c83786a5e11c536514
Author: Warfields <samuel.warfield@gmail.com>
Date:   Tue Apr 10 16:40:50 2018 -0600

    Finished java docs

commit cc75376987a693fc58b4281f488a0f12650eaa4b
Author: Ross Starritt <rstarritt@mymail.mines.edu>
Date:   Tue Apr 10 16:40:30 2018 -0600

    added some javadocs and privatized data for Solution

commit 55c296fd82da5f9efb2c566eee6f5f909d80b0c8
Author: Ross Starritt <rstarritt@mymail.mines.edu>
Date:   Tue Apr 10 16:37:03 2018 -0600

    completed what currently seems necessary for Solution

commit 031ed1114e20a6fb67bbb4648fd9a85237b6a7d4
Author: Ross Starritt <rstarritt@mymail.mines.edu>
Date:   Tue Apr 10 16:31:43 2018 -0600

    I forgot to add the file

commit 9a5ab9ab94e743953c71569cd0ba2c8071b7bcc1
Author: Warfields <samuel.warfield@gmail.com>
Date:   Tue Apr 10 16:29:21 2018 -0600

    Finished JDocs for Human Player & Computer Player(and the skeleton methods)

commit 731f45e74c4678e1c8a36febde4112e591cb061b
Author: Warfields <samuel.warfield@gmail.com>
Date:   Tue Apr 10 16:12:42 2018 -0600

    Fixed a typo on GameSetupTests

commit d4338d71b70b9e7e6cb0193f98f56dc40231f041
Author: Warfields <samuel.warfield@gmail.com>
Date:   Tue Apr 10 16:10:26 2018 -0600

    Worked out memory safety between tests

commit 3298378c1a1e5b1f8b9b40d23f0850e8b91da9ca
Author: Ross Starritt <rstarritt@mymail.mines.edu>
Date:   Tue Apr 10 16:29:09 2018 -0600

    worked on Solution class, because we were missing that

commit 293851d1bad09a22a913b387353e6c4d6ca56376
Merge: a917259 0ad1d38
Author: Ross Starritt <rstarritt@mymail.mines.edu>
Date:   Tue Apr 10 15:52:49 2018 -0600

    Everything is broken! to the tune of 'Everything is Awesome'

commit a917259efa849c88d2c1d12eeda2558bf4c56340
Author: Ross Starritt <rstarritt@mymail.mines.edu>
Date:   Tue Apr 10 15:49:25 2018 -0600

    starting writing on tests

commit 0ad1d38627c383a32ea72359e70028a7aa81d299
Author: Warfields <samuel.warfield@gmail.com>
Date:   Tue Apr 10 15:48:56 2018 -0600

    Added @BeforeClass To GameActionTest

commit cb5099f9d5d7b4d7bdb858dc0d4acd1ff6231369
Author: Warfields <samuel.warfield@gmail.com>
Date:   Tue Apr 10 15:45:45 2018 -0600

    Added JUnit Test File

commit 5741fdfaa2ed2ef91d03eb98fe5b61d30f9708c1
Author: Ross Starritt <rstarritt@mymail.mines.edu>
Date:   Fri Apr 6 22:15:52 2018 -0600

    altered dealing function to leave the deck alone

commit 26ce8529c2c034983a1822be481873138613bb9a
Author: Warfields <samuel.warfield@gmail.com>
Date:   Fri Apr 6 22:11:31 2018 -0600

    Passing some tests

commit d8f7670ffb39b11ef7eb007f8e5d762fc5821dcb
Author: Warfields <samuel.warfield@gmail.com>
Date:   Fri Apr 6 22:07:15 2018 -0600

    Wrote Dealing Tests

commit 8d12f69798ff72782df150237c8dc56e93ffcd7b
Author: Warfields <samuel.warfield@gmail.com>
Date:   Fri Apr 6 21:57:34 2018 -0600

    Got Play Tests To Pass

commit 12d512ff45e681137415a470cdba630d32f060f6
Author: Warfields <samuel.warfield@gmail.com>
Date:   Fri Apr 6 21:38:17 2018 -0600

    Player Loading implemented

commit 8a91b194ee868c897f4ee0ab3531adcd9df05934
Author: Ross Starritt <rstarritt@mymail.mines.edu>
Date:   Fri Apr 6 21:26:33 2018 -0600

    more work changing names

commit 3764c0b2a3dfb32c02c79406deafd0675b1aaf24
Merge: d52c1b5 b29ec0c
Author: Ross Starritt <rstarritt@mymail.mines.edu>
Date:   Fri Apr 6 21:24:35 2018 -0600

    Merge branch 'master' of https://github.com/Warfields/Clue

commit d52c1b5b52bb148a9bd34f75c3ccea52549990d3
Author: Ross Starritt <rstarritt@mymail.mines.edu>
Date:   Fri Apr 6 21:24:27 2018 -0600

    refactored a few files to go from x,y to col, row

commit b29ec0c367d3d1ceb12b058c5e53d564812aff49
Author: Warfields <samuel.warfield@gmail.com>
Date:   Fri Apr 6 21:23:44 2018 -0600

    Refactored a name

commit fb4648beba672607dcbc4ad495c570c3bd16196f
Merge: 76bea48 bba5ba3
Author: Warfields <samuel.warfield@gmail.com>
Date:   Fri Apr 6 21:21:55 2018 -0600

    Merge branch 'master' of https://github.com/Warfields/Clue

commit 76bea483c83266609bf2bb3a25cd9ec641d6092d
Author: Warfields <samuel.warfield@gmail.com>
Date:   Fri Apr 6 21:21:52 2018 -0600

    Finished Player Junit

commit bba5ba3e1e9f2dbac48cf8909911add6568234fc
Author: Ross Starritt <rstarritt@mymail.mines.edu>
Date:   Fri Apr 6 21:18:51 2018 -0600

    players arraylist created in Board, as well as allocation and getter

commit 180e00f8597311f4f7113d80dfa0cd99059cdec3
Merge: f053dff b742052
Author: Warfields <samuel.warfield@gmail.com>
Date:   Fri Apr 6 21:15:23 2018 -0600

    Merge branch 'master' of https://github.com/Warfields/Clue

commit f053dff77dbdf8eb7b4774f1a53ee86784e5d90b
Author: Warfields <samuel.warfield@gmail.com>
Date:   Fri Apr 6 21:15:20 2018 -0600

    Further progress on player JUnit tests

commit b742052a2a5b828cdf19f1a0500e87b1be885e55
Author: Ross Starritt <rstarritt@mymail.mines.edu>
Date:   Fri Apr 6 21:13:31 2018 -0600

    expanded Player class

commit 5764f6264e785628b0fd625a497d28d9f1032df6
Author: Ross Starritt <rstarritt@mymail.mines.edu>
Date:   Fri Apr 6 21:07:54 2018 -0600

    adjusted colors for different charachters

commit 70b81539c947a2d48b40966cadee766a83908435
Merge: 5e830b8 eec7343
Author: Warfields <samuel.warfield@gmail.com>
Date:   Fri Apr 6 21:06:16 2018 -0600

    Merge branch 'master' of https://github.com/Warfields/Clue

commit 5e830b85dce42e394764c5b9e82c55757867c580
Author: Warfields <samuel.warfield@gmail.com>
Date:   Fri Apr 6 21:06:09 2018 -0600

    Started Writing Player based JUnit Tests

commit eec7343e96d471517633d23f071e47c5c7a3c430
Author: Ross Starritt <rstarritt@mymail.mines.edu>
Date:   Fri Apr 6 21:06:02 2018 -0600

    Added some color functionality to Player

commit b1ed79922194e0a58f2e13d24412893f661bbed8
Author: Warfields <samuel.warfield@gmail.com>
Date:   Fri Apr 6 20:25:11 2018 -0600

    Game Unit test used == instead of .equals()

commit 53e6e1da60cf4fd3c2f1fb9ea91b5e25e01eb43b
Merge: dcde3a8 64ccfdc
Author: Ross Starritt <rstarritt@mymail.mines.edu>
Date:   Fri Apr 6 19:54:19 2018 -0600

    Merge branch 'master' of https://github.com/Warfields/Clue

commit dcde3a8f25e59bb6c62b35d7244e6ec97f6973dc
Author: Ross Starritt <rstarritt@mymail.mines.edu>
Date:   Fri Apr 6 19:54:03 2018 -0600

    Began writing player class

commit 64ccfdc16dac15426633d2024943c54332f6e4c3
Author: Warfields <samuel.warfield@gmail.com>
Date:   Fri Apr 6 19:54:00 2018 -0600

    File Loading is finished!

commit 666c2a84e8e107707bd1936f3dc7b6f527a785c3
Author: Ross Starritt <rstarritt@mymail.mines.edu>
Date:   Fri Apr 6 19:37:14 2018 -0600

    ensured deck is ArrayList everywhere

commit 30fb7b815ed05469ce9c00bdbf4716b066fbf180
Author: Warfields <samuel.warfield@gmail.com>
Date:   Fri Apr 6 19:32:39 2018 -0600

    Fixed memory allocation order on deck creation

commit 0bd67a12d479005575ab64922dac5c307fc9e14c
Merge: 40458f9 36b66e0
Author: Warfields <samuel.warfield@gmail.com>
Date:   Fri Apr 6 19:24:37 2018 -0600

    Merge branch 'master' of https://github.com/Warfields/Clue

commit 40458f926b3a27b8dc3babb9008249d4849dbbea
Author: Warfields <samuel.warfield@gmail.com>
Date:   Fri Apr 6 19:24:31 2018 -0600

    Type lists are created

commit 36b66e04255ba62af9f334cf72a2df2c69d75149
Author: Ross Starritt <rstarritt@mymail.mines.edu>
Date:   Fri Apr 6 19:24:17 2018 -0600

    implemented dealing of the deck

commit accc558904887a693150ba77f22fad2c0ca606cb
Author: Warfields <samuel.warfield@gmail.com>
Date:   Fri Apr 6 19:10:02 2018 -0600

    Deck generation works

commit f4caf3ac6dd990f3bbdb98498ec2eb0956007aaa
Author: Warfields <samuel.warfield@gmail.com>
Date:   Fri Apr 6 19:06:08 2018 -0600

    Finished player loading

commit 569fff80bb3c5e10aa54ccd8eed975f687f2c373
Merge: fcabbd0 f4a93cd
Author: Warfields <samuel.warfield@gmail.com>
Date:   Fri Apr 6 19:05:07 2018 -0600

    Merge branch 'master' of https://github.com/Warfields/Clue

commit fcabbd06600d0a17443018d7e6d4a6a0e92bcf19
Author: Warfields <samuel.warfield@gmail.com>
Date:   Fri Apr 6 19:04:58 2018 -0600

    Almost done with Loading Configs, Time to Merge

commit f4a93cdafbfc71944c43297a2d5660d46e10885b
Author: Ross Starritt <rstarritt@mymail.mines.edu>
Date:   Fri Apr 6 19:04:31 2018 -0600

    created a few new variables and started the dealing function

commit 25c6a349e4e141f6552d1427d48e459b5b8d8fa9
Author: Ross Starritt <rstarritt@mymail.mines.edu>
Date:   Fri Apr 6 18:54:07 2018 -0600

    created deck

commit 77aed038fe84e02950e7d59714a12c9dd0be83ac
Merge: acf9017 a2a3bbb
Author: Warfields <samuel.warfield@gmail.com>
Date:   Fri Apr 6 18:51:50 2018 -0600

    Merge branch 'master' of https://github.com/Warfields/Clue

commit acf901742f6b9abd608ad01f2b42e6a8815a5ae9
Author: Warfields <samuel.warfield@gmail.com>
Date:   Fri Apr 6 18:51:43 2018 -0600

    Started on refactoring board.initailize()

commit a2a3bbbfc875f3e871a01d6e0988288caaf7b2c0
Author: Ross Starritt <rstarritt@mymail.mines.edu>
Date:   Fri Apr 6 18:51:07 2018 -0600

    Card class is now functioning

commit 40f6ba3c92621881ea8dcb4357b4d1c3d4838c6f
Author: Warfields <samuel.warfield@gmail.com>
Date:   Fri Apr 6 18:27:25 2018 -0600

    Finished card JUnit

commit 48ba1a8434700353ebb77fea83c8243dfea16a9c
Merge: 61ef593 1095ed7
Author: Warfields <samuel.warfield@gmail.com>
Date:   Thu Apr 5 17:39:15 2018 -0600

    Merge Done!

commit 61ef593b85e6792885ac22664e9379dd39a39d1c
Author: Warfields <samuel.warfield@gmail.com>
Date:   Thu Apr 5 17:36:43 2018 -0600

    Added Name Checking to JUnit

commit 1095ed737cefda041c161621f6caad7632fa0433
Author: Ross Starritt <rstarritt@mymail.mines.edu>
Date:   Thu Apr 5 16:51:24 2018 -0600

    combined tests to reduce repeated logic

commit dbeb5a42ec066d6ee8eb2165666118b548af0aaf
Merge: e5e65b9 f10f838
Author: Ross Starritt <rstarritt@mymail.mines.edu>
Date:   Thu Apr 5 16:36:11 2018 -0600

    Merge branch 'master' of https://github.com/Warfields/Clue

commit e5e65b99fa02e40e6499879e0cb4794523be284b
Author: Ross Starritt <rstarritt@mymail.mines.edu>
Date:   Thu Apr 5 16:35:28 2018 -0600

    skeletons of tests

commit f10f8383fc997fb42786d1b0aeb51338c82b8610
Author: Warfields <samuel.warfield@gmail.com>
Date:   Thu Apr 5 16:35:11 2018 -0600

    added skeleton method

commit dbf283dc8819bc6450b6e6df602a501b56283845
Author: Warfields <samuel.warfield@gmail.com>
Date:   Thu Apr 5 16:33:27 2018 -0600

    Started on JUnit tests

commit ae7c54480aac2ef4784108abddbf45bb19e6e6f0
Author: Warfields <samuel.warfield@gmail.com>
Date:   Thu Apr 5 16:11:17 2018 -0600

    Added More goals

commit 3f98313aefdb341ed1b7b058f7be942c8b423bf8
Author: Ross Starritt <rstarritt@mymail.mines.edu>
Date:   Tue Apr 3 16:50:54 2018 -0600

    wrote comments to outline some classes

commit dbd7a44bc8887ad79d1865c7b62b3f3d302d340c
Author: Warfields <samuel.warfield@gmail.com>
Date:   Tue Apr 3 16:43:34 2018 -0600

    Set up objectives

commit 7c206de1710d58454966ce6c14639e37944bb874
Author: Warfields <samuel.warfield@gmail.com>
Date:   Tue Apr 3 16:41:28 2018 -0600

    Removed some unesscary Println's

commit dc7f5b9b314a0af86587c7428f06da57ce67bbc7
Author: Ross Starritt <rstarritt@mymail.mines.edu>
Date:   Tue Apr 3 16:38:04 2018 -0600

    added weapons.csv with 6 weapons

commit e56d591647746f4c6522467172cfd13867c87e76
Author: Ross Starritt <rstarritt@mymail.mines.edu>
Date:   Tue Apr 3 16:33:54 2018 -0600

    filled cardType enum

commit a88b303d1c50cb70d40439ce50c6a3b4be75eafc
Merge: 5686d09 760b748
Author: Ross Starritt <rstarritt@mymail.mines.edu>
Date:   Tue Apr 3 16:30:30 2018 -0600

    Merge branch 'master' of https://github.com/Warfields/Clue

commit 5686d09cedf103b22652e9755704e8411dea8a87
Author: Ross Starritt <rstarritt@mymail.mines.edu>
Date:   Tue Apr 3 16:30:00 2018 -0600

    added people.csv with 6 players

commit 760b748da5eb9ff740156b5a2176794580f41a73
Author: Warfields <samuel.warfield@gmail.com>
Date:   Tue Apr 3 16:29:23 2018 -0600

    Started added @BeforeClass and did imports for GameSetupTests

commit 48bfb24ada68c61ae7ae7219c82e392a94b6aa1f
Author: Warfields <samuel.warfield@gmail.com>
Date:   Tue Apr 3 16:17:18 2018 -0600

    Added More empty classes

commit 7dfef7a558c4b3cca3ffd5b24893bfb9fac34ddd
Author: Warfields <samuel.warfield@gmail.com>
Date:   Tue Apr 3 16:09:14 2018 -0600

    Added skeleton classes for players

commit 4d0c146240ac00ae95b0aef066a522c9a5d872b4
Author: Warfields <samuel.warfield@gmail.com>
Date:   Tue Apr 3 16:02:22 2018 -0600

    New test class file created for testing player startup

commit c6508f8b7bd80341c5c4c909f67546c91de1399f
Author: Warfields <samuel.warfield@gmail.com>
Date:   Tue Apr 3 15:54:47 2018 -0600

    Directory cleanup

commit 630e0ce099bfb837db3d69e32e33e5b8985ab7eb
Author: Warfields <samuel.warfield@gmail.com>
Date:   Tue Apr 3 15:53:32 2018 -0600

    Added new operating system files to gitignore so that in progress files arn't included

commit 2d7d7ae825e8fc7885a960024dbfe4d1137e1256
Author: Warfields <samuel.warfield@gmail.com>
Date:   Tue Apr 3 15:49:19 2018 -0600

    Added Defunct JUnit tests package

commit e20e77bb94dc007da90058935eb9478cd58cc462
Author: Warfields <samuel.warfield@gmail.com>
Date:   Mon Apr 2 19:32:29 2018 -0600

    Made max board size more reasonable

commit 5512eb661458ff26eb44dfadd1df74d95ca1aec4
Author: Ross Starritt <rstarritt@mymail.mines.edu>
Date:   Mon Apr 2 19:31:08 2018 -0600

    added ID to BadConfigFormatExcpetion, build path has no errors or warnings

commit eef551d9b3d1c6e62253b2a5e154fb2e65419c2a
Merge: 8d8286e 2efe489
Author: Warfields <samuel.warfield@gmail.com>
Date:   Mon Apr 2 19:27:36 2018 -0600

    Merge branch 'master' of https://github.com/Warfields/Clue

commit 8d8286e59e1258bfe7b5e1100e6c28f3a956547e
Author: Warfields <samuel.warfield@gmail.com>
Date:   Mon Apr 2 19:27:14 2018 -0600

    Add Comments

commit 2efe489c21e3670a50260dec3c5ba4a546e6eedb
Author: Ross Starritt <rstarritt@mymail.mines.edu>
Date:   Mon Apr 2 19:27:11 2018 -0600

    fixed resource leak with scanners not being closed when exceptions were thrown

commit 9a32b7d8573d11b7788d0ee37e52a1e0cc50cda4
Merge: 68adb94 c563488
Author: Warfields <samuel.warfield@gmail.com>
Date:   Mon Apr 2 18:48:42 2018 -0600

    Merge branch 'master' of https://github.com/Warfields/Clue

commit 68adb94944513e1699d1c3b5fa51f0dd234fef85
Author: Warfields <samuel.warfield@gmail.com>
Date:   Mon Apr 2 18:48:34 2018 -0600

    Fixed supressed exception

commit c5634881836d233bc23a8e9a9cd4cbd950df0c4b
Author: Ross Starritt <rstarritt@mymail.mines.edu>
Date:   Mon Apr 2 18:38:42 2018 -0600

    removed completed TODOs and unused print statements

commit 621a974683140bf6ffca8a5ad6175874c4588824
Author: Warfields <samuel.warfield@gmail.com>
Date:   Wed Mar 14 19:47:53 2018 -0600

    Moved one Line to fix

commit 29bd3033631e89d252437eae87451076edf19507
Author: Warfields <samuel.warfield@gmail.com>
Date:   Wed Mar 14 19:19:21 2018 -0600

    Fixed doors yet again!

commit 79ceb105bf5a5d75f58ffd43f2032f7593a37cfd
Author: Ross Starritt <rstarritt@mymail.mines.edu>
Date:   Wed Mar 14 19:07:56 2018 -0600

    players can stop moving at a door now

commit 6524d361b52efc60f467db68a5e2066ec778bd1c
Author: Warfields <samuel.warfield@gmail.com>
Date:   Wed Mar 14 18:42:33 2018 -0600

    We Finished passing our tests, time to go onto Balwins..,

commit 726df3be97fa513228e261b48c6c855b570761c7
Author: Warfields <samuel.warfield@gmail.com>
Date:   Wed Mar 14 18:26:47 2018 -0600

    Off by one error in the JUnit Test

commit c6766b263539ad49fc69fff623d8e9ee5ed221c4
Author: Warfields <samuel.warfield@gmail.com>
Date:   Wed Mar 14 18:24:41 2018 -0600

    Doors now work!

commit 7ee7955918975b53a33805f736e873a338054ce0
Author: Warfields <samuel.warfield@gmail.com>
Date:   Wed Mar 14 18:09:05 2018 -0600

    Fixed another one line error

commit 421b2749aef4b80debd9256f638243069535b52a
Author: Warfields <samuel.warfield@gmail.com>
Date:   Wed Mar 14 17:55:51 2018 -0600

      .-'---`-.
    ,'          `.
    |             \
    |              \
    \           _  \
    ,\  _    ,'-,/-)\
    ( * \ \,' ,' ,'-)
     `._,)     -',-')
       \/         ''/
        )        / /
       /       ,'-'
    Litteral Facepalm

commit 564ba57adb9622eb565124b6a3693a90373a3104
Author: Ross Starritt <rstarritt@mymail.mines.edu>
Date:   Wed Mar 14 16:51:37 2018 -0600

    cells can no longer be a room and door

commit 8e9d3cb7bd402d7508bd20599de0647367dddaa5
Author: Warfields <samuel.warfield@gmail.com>
Date:   Wed Mar 14 16:47:29 2018 -0600

    Made rooms start to work

commit 4167415d7cef559079e371086a8bae53f5832d5b
Author: Warfields <samuel.warfield@gmail.com>
Date:   Wed Mar 14 16:39:36 2018 -0600

    started on reworking calcAdjacency

commit 4fb04d2dd93d484073cc51c09f1c043c840d7373
Author: Warfields <samuel.warfield@gmail.com>
Date:   Wed Mar 14 15:51:00 2018 -0600

    Removed some unused imports

commit c3f25435883edf84d38f30e3b326851f51ec2cb3
Author: Warfields <samuel.warfield@gmail.com>
Date:   Tue Mar 13 21:38:28 2018 -0600

    Updated Excel File

commit 5bc06455276ef551d1acdc3ddcbbf668ade7d5c6
Author: Ross Starritt <rstarritt@mymail.mines.edu>
Date:   Tue Mar 13 21:37:33 2018 -0600

    forgot to save changes to the libreCalc file

commit c7dac666648c722e292f2659b3c8e546a9aada6f
Merge: a86abc8 682d887
Author: Samuel Warfield <32973228+Warfields@users.noreply.github.com>
Date:   Tue Mar 13 21:34:38 2018 -0600

    Merge pull request #5 from Warfields/samTest
    
    Sam test

commit a86abc8487bb8b7e8038fcd1b9eadcce344b6079
Author: Ross Starritt <rstarritt@mymail.mines.edu>
Date:   Tue Mar 13 21:34:04 2018 -0600

    finished adjacencies tests, adjWalkways passes because it was written in intBoard and imported to board to prevent errors in the tests.

commit 682d887f59e2db2d294d6733222197095c706d7a
Author: Warfields <samuel.warfield@gmail.com>
Date:   Tue Mar 13 21:23:07 2018 -0600

    Fixed a Targeting error

commit 9e9667b52f61bab7703fc46f4b196e20303e8ef1
Author: Warfields <samuel.warfield@gmail.com>
Date:   Tue Mar 13 21:15:02 2018 -0600

    implimented the junit test testingSingletonDoors()

commit 9ce173aade65337ce970bb6c95f335c0502e6ffa
Merge: 05cf757 501c261
Author: Samuel Warfield <32973228+Warfields@users.noreply.github.com>
Date:   Tue Mar 13 20:58:50 2018 -0600

    Merge pull request #4 from Warfields/samTest
    
    Sam test

commit 501c261905660d4f6b967c2c0c5cd7932b71ecb5
Merge: 73129f2 05cf757
Author: Samuel Warfield <32973228+Warfields@users.noreply.github.com>
Date:   Tue Mar 13 20:58:41 2018 -0600

    Merge branch 'master' into samTest

commit 05cf757dc35a0eb4e1b48dd32750d5447606eb2d
Author: Ross Starritt <rstarritt@mymail.mines.edu>
Date:   Tue Mar 13 20:57:15 2018 -0600

    started writting tests for adjacencies

commit 73129f27e98e0c3a5480d0fbbe098f6add8655ec
Author: Warfields <samuel.warfield@gmail.com>
Date:   Tue Mar 13 20:53:47 2018 -0600

    finished targetingRoomExits()

commit 1ba57e08f3814475975cf6cc81947f082df33f80
Author: Warfields <samuel.warfield@gmail.com>
Date:   Tue Mar 13 20:28:27 2018 -0600

    added targetingRoomEntries()

commit c64585b3583d155d8806af67c45f86e0d9787f8d
Author: Warfields <samuel.warfield@gmail.com>
Date:   Tue Mar 13 20:08:44 2018 -0600

    Added targetingTestWalkways() to JUnit tests

commit c6f890f9e129b6e9848a074a25d9c53fa0953505
Author: Warfields <samuel.warfield@gmail.com>
Date:   Tue Mar 13 19:33:16 2018 -0600

    Test setup is now done

commit 1c1e17f80681c01a2e575fd00278c6c6e4ede131
Author: Warfields <samuel.warfield@gmail.com>
Date:   Tue Mar 13 19:30:30 2018 -0600

    Comments

commit 2c344554e11220bd77fd3e24c010c0afdce5cb31
Author: Warfields <samuel.warfield@gmail.com>
Date:   Tue Mar 13 19:21:12 2018 -0600

    Finished updating the spreadsheets to reflect tests

commit 575d6da8045a427bdc557d319574dac90f872451
Merge: 8e02877 0714371
Author: Warfields <samuel.warfield@gmail.com>
Date:   Tue Mar 13 18:08:32 2018 -0600

    Merge branch 'master' of https://github.com/Warfields/Clue

commit 8e0287767781b09d21f40604aee9064c9d475059
Author: Warfields <samuel.warfield@gmail.com>
Date:   Tue Mar 13 18:08:23 2018 -0600

    The ods is now readable

commit 071437166b1ddb5a5b297a0e095fc17f8bb70588
Author: Ross Starritt <rstarritt@mymail.mines.edu>
Date:   Tue Mar 13 17:44:25 2018 -0600

    added test file stub

commit e7d728752034218306813574f4c458c537674a0e
Author: Warfields <samuel.warfield@gmail.com>
Date:   Tue Mar 13 17:12:05 2018 -0600

    Added some getters, and setters

commit 5968c709932d966dfbac6a89784fb4af0fdd2806
Author: Warfields <samuel.warfield@gmail.com>
Date:   Tue Mar 13 17:03:27 2018 -0600

    Added provided junit tests

commit 2ec3c5f34d1dad049de5c3a9077ff203edaaf994
Author: Samuel Warfield <samuel.warfield@gmail.com>
Date:   Wed Mar 7 23:07:35 2018 -0700

    WE DID IT REDDITgit push!

commit bfc5e74cb39699b1808584f3e62fc0e12d9993ef
Author: Samuel Warfield <samuel.warfield@gmail.com>
Date:   Wed Mar 7 22:58:59 2018 -0700

    Fixed a null pointer

commit aa3905cce465b7403a10fcc8de5a1762559cb07c
Merge: e3829fc c7402b0
Author: Samuel Warfield <32973228+Warfields@users.noreply.github.com>
Date:   Wed Mar 7 22:38:51 2018 -0700

    Merge pull request #3 from Warfields/addExpSam
    
    add some exceptional stuff to loadboard

commit e3829fc18decc7105799ebf6a35701e0c3fbaceb
Author: Ross Starritt <rstarritt@mymail.mines.edu>
Date:   Wed Mar 7 22:38:14 2018 -0700

    loadRoomConfig throws an exception

commit c7402b0a86d19b2edd789fafa775d4a60bb02b57
Author: Samuel Warfield <samuel.warfield@gmail.com>
Date:   Wed Mar 7 22:36:17 2018 -0700

    add some exceptional stuff to loadboard

commit 409073facdf539f4d2cb292a704610d416ec93bd
Author: Samuel Warfield <samuel.warfield@gmail.com>
Date:   Wed Mar 7 22:26:31 2018 -0700

    Fixed String parsing

commit a9b30a73a69bd78eabcb997eddb893e60043e939
Author: Samuel Warfield <samuel.warfield@gmail.com>
Date:   Wed Mar 7 22:22:56 2018 -0700

    RoomKey

commit 4f16f7f982f7e75a6effa17f4065ffe3267b4db1
Author: Ross Starritt <rstarritt@mymail.mines.edu>
Date:   Wed Mar 7 22:21:09 2018 -0700

    cleared legend before reading new legend

commit ab36473cec7521f433f8b22c8f60e5ecc41cdf10
Author: Samuel Warfield <samuel.warfield@gmail.com>
Date:   Wed Mar 7 22:14:47 2018 -0700

    Refactored

commit 1ecef7475f5ee0ad708134bad6f7bb6657a4df38
Author: Ross Starritt <rstarritt@mymail.mines.edu>
Date:   Wed Mar 7 21:41:52 2018 -0700

    dealt with a consequence of exceptions and restructured folders so java would read files

commit 808bce64cf6f978c50e8d9ea95db1495a381ac56
Author: Samuel Warfield <samuel.warfield@gmail.com>
Date:   Wed Mar 7 16:35:05 2018 -0700

    more exception work

commit 901f605a52b785f98a1f8bcdeb3da6ba7e12c91b
Author: Samuel Warfield <samuel.warfield@gmail.com>
Date:   Wed Mar 7 16:32:01 2018 -0700

    Added file not found throwing

commit c8f7325129e604ca1dd8d13f9338f28bdeb44255
Author: Ross Starritt <rstarritt@mymail.mines.edu>
Date:   Wed Mar 7 12:47:10 2018 -0700

    refactored default files

commit 22e81153b9ee3a4c4d9098555b582acf675c6992
Author: Samuel Warfield <samuel.warfield@gmail.com>
Date:   Wed Mar 7 12:37:10 2018 -0700

    Fixed a typo in a test!

commit 3e05dbbcd07082a452b86bde6b72dbda954ac223
Author: Samuel Warfield <samuel.warfield@gmail.com>
Date:   Wed Mar 7 12:34:38 2018 -0700

    Removed print statements

commit cc2bc799bf031025b80dc5ee17ae8686bf13c9a8
Author: Samuel Warfield <samuel.warfield@gmail.com>
Date:   Wed Mar 7 12:31:06 2018 -0700

    We lost many rebels finding that null pointer

commit 779741a5eda85a81cf8d5f7d9ec9ca46b0734e56
Author: Ross Starritt <rstarritt@mymail.mines.edu>
Date:   Wed Mar 7 12:04:45 2018 -0700

    null pointers are satan

commit e7947d2ce58e841df4442397d54203674eddbd22
Author: Ross Starritt <rstarritt@mymail.mines.edu>
Date:   Wed Mar 7 11:32:44 2018 -0700

    mild refactoring to BoardCell, added some documentation

commit 2062fc1be654bca63ca40e96b7597bd48499d54b
Author: Samuel Warfield <samuel.warfield@gmail.com>
Date:   Wed Mar 7 00:26:30 2018 -0700

    Nulls are still hard

commit b7e96a5e1ca67ef1435d11493b8cfbea36a347c2
Author: Samuel Warfield <samuel.warfield@gmail.com>
Date:   Wed Mar 7 00:10:46 2018 -0700

    Fixed a config file

commit 59bb6e440e1b84cfcca0948f1f0ce776267030d5
Author: Samuel Warfield <samuel.warfield@gmail.com>
Date:   Wed Mar 7 00:09:56 2018 -0700

    Fixed a config file

commit 14e6d5c9d30ab07c374a6fdb00230d3bf34074c9
Author: Samuel Warfield <samuel.warfield@gmail.com>
Date:   Wed Mar 7 00:07:41 2018 -0700

    Fixed BoardCell

commit 38c6ca30b47bc64792bb05bb4b1279b2a6b3207f
Author: Samuel Warfield <samuel.warfield@gmail.com>
Date:   Tue Mar 6 23:45:52 2018 -0700

    HELL YAH THINGS BE WORKING NOW!

commit 31bf5c03e72dc6cf1304d8fc339cf77dd31936ce
Author: Samuel Warfield <samuel.warfield@gmail.com>
Date:   Tue Mar 6 23:38:57 2018 -0700

    Null pointers are hard...

commit 5e4c7d6afa6f23c9f1ff770b94ba1bc96b896aa4
Merge: 8168aa6 37e447f
Author: Ross Starritt <rstarritt@mymail.mines.edu>
Date:   Tue Mar 6 23:13:46 2018 -0700

    Merge branch 'master' of https://github.com/Warfields/Clue

commit 8168aa6b6f12befd47dff93feef4af9bb3721499
Author: Ross Starritt <rstarritt@mymail.mines.edu>
Date:   Tue Mar 6 23:13:16 2018 -0700

    I don't kno what I changed

commit 37e447f610056ea731b5227f40908d17fe3e600a
Author: Samuel Warfield <samuel.warfield@gmail.com>
Date:   Tue Mar 6 23:12:15 2018 -0700

    fixed shit

commit 43d0e8884f24b545ebdba16184360100d95d87ab
Author: Samuel Warfield <samuel.warfield@gmail.com>
Date:   Tue Mar 6 23:03:03 2018 -0700

    Removed Reader Errors

commit 80ddfad3c842c81abdba180ad07d889f58a39713
Author: Samuel Warfield <samuel.warfield@gmail.com>
Date:   Tue Mar 6 22:48:59 2018 -0700

    Removed Reader Errors

commit 464f2a422b52755b696ac9a26acd514cda6fe04f
Author: Samuel Warfield <samuel.warfield@gmail.com>
Date:   Tue Mar 6 22:47:37 2018 -0700

    Forgot a bracket

commit 1a675791508616d50e9360da37333af81a4c2471
Merge: 9ee3f10 05cc76a
Author: Samuel Warfield <32973228+Warfields@users.noreply.github.com>
Date:   Tue Mar 6 22:45:42 2018 -0700

    Merge pull request #2 from Warfields/Legends
    
    implemented load room config

commit 05cc76a43706398b93595ded8ce2508884b4a015
Author: Ross Starritt <rstarritt@mymail.mines.edu>
Date:   Tue Mar 6 22:44:22 2018 -0700

    implemented load room config

commit 9ee3f10cdf638e691a7e66495c39f8fcd1b20915
Author: Samuel Warfield <samuel.warfield@gmail.com>
Date:   Tue Mar 6 22:44:20 2018 -0700

    Doors are now a thing

commit db1c466a3349de1068f1c3bdd55c4625e6489383
Author: Samuel Warfield <samuel.warfield@gmail.com>
Date:   Tue Mar 6 22:35:26 2018 -0700

    The board now being created

commit 9218146760c45b96715e5880423666a7da22812f
Author: Samuel Warfield <samuel.warfield@gmail.com>
Date:   Tue Mar 6 22:26:21 2018 -0700

    csv parsing is done

commit e300f179bf2992ecbce3e8b0050bf16f31780e3b
Author: Samuel Warfield <samuel.warfield@gmail.com>
Date:   Tue Mar 6 22:09:13 2018 -0700

    THANK THE FUCKING LORD SPLIT EXISTS

commit f9d6807e34497f432f280821a91ac7fbbc96e89b
Author: Ross Starritt <rstarritt@mymail.mines.edu>
Date:   Tue Mar 6 21:56:34 2018 -0700

    edited csv

commit 6ef2c0fa5559795b75d2f2c42fccb56af143958d
Author: Samuel Warfield <samuel.warfield@gmail.com>
Date:   Tue Mar 6 21:41:37 2018 -0700

    Caught a wild exception

commit 9d0b5dc22360c5d6a67d3309956ee869550cf41d
Author: Ross Starritt <rstarritt@mymail.mines.edu>
Date:   Tue Mar 6 21:37:39 2018 -0700

    started loading board

commit 68a367709293070d6c30935320489b0f65c87d49
Author: Samuel Warfield <samuel.warfield@gmail.com>
Date:   Tue Mar 6 21:27:33 2018 -0700

    Setup the constructor for board

commit bbcd6241bbf9ba08db896b1eb3dacfdb644104d3
Author: Ross Starritt <rstarritt@mymail.mines.edu>
Date:   Tue Mar 6 21:14:29 2018 -0700

    handled excpetions in initialize

commit aed8a00b7de6ed7f55d1cf9b3d6af6ffcdf4788a
Author: Samuel Warfield <samuel.warfield@gmail.com>
Date:   Tue Mar 6 21:09:33 2018 -0700

    Finished Initailize()

commit 2f305f8d3a789b5bd11a6646860ee3af33c7afb0
Merge: 120553b 176dfe5
Author: Samuel Warfield <samuel.warfield@gmail.com>
Date:   Tue Mar 6 21:01:46 2018 -0700

    Merge remote-tracking branch 'origin/samImp'

commit 176dfe53874a658a3141434cc1a9f083b0c3db56
Author: Samuel Warfield <samuel.warfield@gmail.com>
Date:   Tue Mar 6 21:00:44 2018 -0700

    todos added

commit abb6b4e577326058a1634e84e3b44afa6f8f3585
Author: Samuel Warfield <samuel.warfield@gmail.com>
Date:   Tue Mar 6 20:58:05 2018 -0700

    Implimented methods upto initialize()

commit 120553b6ef6e5841c9e34355678c0863c29de614
Author: Ross Starritt <rstarritt@mymail.mines.edu>
Date:   Tue Mar 6 20:57:56 2018 -0700

    added required test file

commit c41faf059ff9858cbf9bb7a3c2cd874e502cf069
Author: Samuel Warfield <samuel.warfield@gmail.com>
Date:   Tue Mar 6 20:55:43 2018 -0700

    implimented getcellAt, get AdjList

commit 86016a73f62780ad77aaf69b9fc219e1e56df079
Author: Ross Starritt <rstarritt@mymail.mines.edu>
Date:   Tue Mar 6 20:52:57 2018 -0700

    Implemented BadConfigFormatException

commit d2182b62e137c7cc33b88251a462b69e46bdcc61
Author: Samuel Warfield <samuel.warfield@gmail.com>
Date:   Tue Mar 6 20:52:07 2018 -0700

    implimented calcAdj

commit 7bbd65fa8dd2d662875736980a0a990d363896de
Author: Samuel Warfield <samuel.warfield@gmail.com>
Date:   Tue Mar 6 20:39:58 2018 -0700

    Targeting software ported from intBoard

commit 71b8886b4a7b6b46107857dbeb99887f10635884
Author: Ross Starritt <rstarritt@mymail.mines.edu>
Date:   Tue Mar 6 20:31:00 2018 -0700

    added an exception to testRooms in ConfigLoadTests

commit 24cdac7a83892e998068db2231d457b574ccf0d0
Author: Ross Starritt <rstarritt@mymail.mines.edu>
Date:   Tue Mar 6 17:05:31 2018 -0700

    finished OurTests.txt

commit 3b2fddba0238b8da201472785d2c9cc1c56ad22d
Author: Samuel Warfield <samuel.warfield@gmail.com>
Date:   Tue Mar 6 17:01:14 2018 -0700

    renamed the reasoning file

commit 80fc5996acce78e3500d9da4c1c3acc6ad5deaa5
Author: Samuel Warfield <samuel.warfield@gmail.com>
Date:   Tue Mar 6 17:00:18 2018 -0700

    Added reason for JUnit tests

commit 17f93e193c1114bb130ea93cf8f87fcf40475d33
Author: Ross Starritt <rstarritt@mymail.mines.edu>
Date:   Tue Mar 6 16:58:03 2018 -0700

    All requirements for tests are met

commit 10715ae728ca46633f7c2fdb615747de0786952a
Author: Samuel Warfield <samuel.warfield@gmail.com>
Date:   Tue Mar 6 16:51:29 2018 -0700

    Got ridd of a small warning

commit 139451058830e7c4574cb879fbbe7b5c7b013577
Author: Ross Starritt <rstarritt@mymail.mines.edu>
Date:   Tue Mar 6 16:48:55 2018 -0700

    added test for rows and cols

commit c0555b8f9ccf73533140354c263fb1aafa028fd1
Author: Samuel Warfield <samuel.warfield@gmail.com>
Date:   Tue Mar 6 16:47:19 2018 -0700

    Added exception loading

commit 8b5254999ad760f1ca6676c08779d0567e7b95d3
Author: Samuel Warfield <samuel.warfield@gmail.com>
Date:   Tue Mar 6 16:42:12 2018 -0700

    Add more tests

commit 9ac2e2b6c6d79a718842a829e57736f512afd702
Author: Ross Starritt <rstarritt@mymail.mines.edu>
Date:   Tue Mar 6 16:35:31 2018 -0700

    wrote tests for initals

commit a1788b00c085d476d60b73e834b4b87053b253ef
Merge: 9bceb49 c452904
Author: Samuel Warfield <32973228+Warfields@users.noreply.github.com>
Date:   Tue Mar 6 16:27:14 2018 -0700

    Merge pull request #1 from Warfields/samTest
    
    Added num doors

commit c452904d49ae5d4d15ee84471da9fced1adb408b
Merge: 0560257 9bceb49
Author: Samuel Warfield <32973228+Warfields@users.noreply.github.com>
Date:   Tue Mar 6 16:26:38 2018 -0700

    Merge branch 'master' into samTest

commit 9bceb4971f8f97ba01befb430c5722fcc11df208
Author: Ross Starritt <rstarritt@mymail.mines.edu>
Date:   Tue Mar 6 16:24:02 2018 -0700

    added @Test params

commit 0560257b76a61a1f9e5a1a5bb8643d9105095b11
Author: Samuel Warfield <samuel.warfield@gmail.com>
Date:   Tue Mar 6 16:24:00 2018 -0700

    Added num doors

commit f8f39217288248de1a35e8040bb0101f69a0bdbe
Author: Ross Starritt <rstarritt@mymail.mines.edu>
Date:   Tue Mar 6 16:21:39 2018 -0700

    wrote tests foor door direction

commit 3f9afa51a0f2a84437f586bc5dbaa9029d2e1430
Author: Samuel Warfield <samuel.warfield@gmail.com>
Date:   Tue Mar 6 16:07:47 2018 -0700

    More Null Pointers

commit 2939bb42a96da4b07b28adc750898e2c401e99ef
Author: Samuel Warfield <samuel.warfield@gmail.com>
Date:   Tue Mar 6 16:04:41 2018 -0700

    Got rido of a null pointer issue

commit 72629c6703dac8110b422d8cd86c22dd57bcb6d3
Author: Samuel Warfield <samuel.warfield@gmail.com>
Date:   Tue Mar 6 16:00:15 2018 -0700

    Changed Set Type

commit b88fc2df533173698d8c8bfc4242aa83e6c60ab1
Merge: ac035a6 ca7af78
Author: Samuel Warfield <samuel.warfield@gmail.com>
Date:   Tue Mar 6 15:56:55 2018 -0700

    Merge remote-tracking branch 'origin/TestWritting'

commit ca7af788048197a04c1cfe7a4e95d5559f2fc944
Author: Ross Starritt <rstarritt@mymail.mines.edu>
Date:   Tue Mar 6 15:55:59 2018 -0700

    wrote several tests

commit ac035a644a870120acccc42ab09df91079576885
Author: Samuel Warfield <samuel.warfield@gmail.com>
Date:   Tue Mar 6 15:52:38 2018 -0700

    Got the (hopefully) last set of getters added

commit 3b371b47487d123ae3e1f739868f410ae663fc18
Author: Samuel Warfield <samuel.warfield@gmail.com>
Date:   Tue Mar 6 15:14:04 2018 -0700

    Added Stuff so Baldwins code works

commit 09726873aa2bc267c94d1723d62e38bb41c2731e
Author: Samuel Warfield <samuel.warfield@gmail.com>
Date:   Tue Mar 6 14:41:28 2018 -0700

    Realized we need to pass Balwin's tests too

commit 5993c90530a91b91ea899b900225e6b3e1e59dd0
Author: Samuel Warfield <samuel.warfield@gmail.com>
Date:   Tue Mar 6 14:32:12 2018 -0700

    Started JavaDocs on Board

commit eed388864f78e5f8764d0f62bc82c3cb40ba1f78
Author: Samuel Warfield <samuel.warfield@gmail.com>
Date:   Tue Mar 6 14:23:31 2018 -0700

    Forgot to add example file back

commit a03e17557b16c21d1f393f559bec49b1180ec91b
Author: Samuel Warfield <samuel.warfield@gmail.com>
Date:   Tue Mar 6 14:22:10 2018 -0700

    Updated things so that Junit will compile

commit 9b1c9b171c6e77addb08f987de55fbedcca5dce1
Author: Samuel Warfield <samuel.warfield@gmail.com>
Date:   Tue Mar 6 14:11:43 2018 -0700

    Added hardcoded returns so the JUnit will compile

commit 057029a5587bd266eb8e6634c8fe9ecb3aac9b90
Merge: 1cc8129 3d5daa5
Author: Samuel Warfield <samuel.warfield@gmail.com>
Date:   Mon Mar 5 23:34:09 2018 -0700

    Merge remote-tracking branch 'origin/BoardTest'

commit 3d5daa5fd64f564c4b2e8d579a3d69de69015a63
Author: Ross Starritt <rstarritt@mymail.mines.edu>
Date:   Mon Mar 5 23:31:28 2018 -0700

    forgot to add files earlier

commit 8ae50a0c6f26d5a209937d9c8b001ab0f28b82fc
Author: Ross Starritt <rstarritt@mymail.mines.edu>
Date:   Mon Mar 5 23:27:50 2018 -0700

    started writting tests

commit 1cc812966bdbca386ffe2576f012ec451aca7dc2
Author: Samuel Warfield <samuel.warfield@gmail.com>
Date:   Mon Mar 5 23:27:03 2018 -0700

    Added bad config exception

commit a78a99ad30223615de3b208ac7d467cd84aa7054
Author: Samuel Warfield <samuel.warfield@gmail.com>
Date:   Mon Mar 5 23:22:23 2018 -0700

    Added to Boardcell (Still a Skeleton Class)

commit 8de9beaa68ec0d6e3d0c942132df023f23cc9d4d
Author: Ross Starritt <rstarritt@mymail.mines.edu>
Date:   Mon Mar 5 23:18:17 2018 -0700

    added door enum

commit 1e784a17bbf48315a805db3a0be993cbc5f54681
Author: Samuel Warfield <samuel.warfield@gmail.com>
Date:   Mon Mar 5 23:17:22 2018 -0700

    Made a skeleton board classes as per the UML

commit 3e8d733e668f3d1f1c7b321caf0f1e96ced5d8fe
Author: Samuel Warfield <samuel.warfield@gmail.com>
Date:   Mon Mar 5 22:58:24 2018 -0700

    Added empty classes

commit 9175386f067233f704f52fea49a8a4ef93ce1739
Author: Samuel Warfield <samuel.warfield@gmail.com>
Date:   Mon Mar 5 22:42:48 2018 -0700

    Added new tests and data

commit d46018bcccfa0c2b30c254ad6f187f9592ef6b9c
Author: Samuel Warfield <samuel.warfield@gmail.com>
Date:   Mon Mar 5 22:36:39 2018 -0700

    Created new package

commit 92383ccfc19638ded743029e5912dab557924acd
Author: Samuel Warfield <samuel.warfield@gmail.com>
Date:   Fri Mar 2 21:02:42 2018 -0700

    Added readme

commit dbdaa30b3b8d8ce42b2ebda6f5ca14df9fb06da4
Author: Ross Starritt <rstarritt@mymail.mines.edu>
Date:   Fri Mar 2 20:58:39 2018 -0700

    added csv

commit e9fb9ca12dd94fe2294b405b184f76222f41836b
Author: Ross Starritt <rstarritt@mymail.mines.edu>
Date:   Fri Mar 2 20:56:21 2018 -0700

    added clues.xlsx

commit b0cf7e555e5384800f941b1e404122069470af4e
Merge: 0216cd5 eabc133
Author: Ross Starritt <rstarritt@mymail.mines.edu>
Date:   Fri Mar 2 20:48:43 2018 -0700

    Merge branch 'master' of https://github.com/Warfields/Clue
    
    Completed Key

commit 0216cd509bc7c828ece07e66f8de4040b1904daf
Author: Ross Starritt <rstarritt@mymail.mines.edu>
Date:   Fri Mar 2 20:47:04 2018 -0700

    Key completed

commit eabc133ce20664c872197d11d2129c2fd9d01f26
Author: Samuel Warfield <samuel.warfield@gmail.com>
Date:   Fri Mar 2 20:46:19 2018 -0700

    Layout Added

commit 12b31fe99592933349473fcaef5069ed8e168e97
Author: Ross Starritt <rstarritt@mymail.mines.edu>
Date:   Fri Mar 2 16:33:54 2018 -0700

    added room key and map file stubs

commit b41e160b38db55932bd83e415cfb71f22a8d6a03
Author: Samuel Warfield <samuel.warfield@gmail.com>
Date:   Fri Mar 2 16:30:11 2018 -0700

    Finished javadocs

commit 4d2bf48608106495cbb3e03696eebe71f36a8663
Author: Ross Starritt <rstarritt@mymail.mines.edu>
Date:   Fri Mar 2 16:16:51 2018 -0700

    passing all tests

commit 69b776aa0859dd2ba0419e94b056058c873de945
Author: Ross Starritt <rstarritt@mymail.mines.edu>
Date:   Fri Mar 2 15:54:11 2018 -0700

    fixed a huge mess

commit 6dc1711a06d449e13533236ad4cfdcb0362bc0e1
Author: Samuel Warfield <samuel.warfield@gmail.com>
Date:   Fri Mar 2 14:56:37 2018 -0700

    Small JUnit Change

commit 3bc23afc35035547d6071938b736b4933d501457
Author: Samuel Warfield <samuel.warfield@gmail.com>
Date:   Fri Mar 2 14:48:34 2018 -0700

    FIXED JUnit Test

commit 478ecab327facb57622773ac809b1d60b33f67cb
Author: Samuel Warfield <samuel.warfield@gmail.com>
Date:   Fri Mar 2 14:22:08 2018 -0700

    Still Broken

commit 39c860e3e0ec1eb18a517a49a5f96b2dcf8094c1
Author: Samuel Warfield <samuel.warfield@gmail.com>
Date:   Fri Mar 2 13:55:46 2018 -0700

    Started adjancency testing

commit 9c4f833d22684d7a30ba35ac238f1b9f426b4372
Author: Ross Starritt <rstarritt@mymail.mines.edu>
Date:   Fri Mar 2 13:11:26 2018 -0700

    Changed from generic set to HashSet

commit 6e9efbe8591864aa122cc0683764372463233856
Author: Samuel Warfield <warfield@mymail.mines.edu>
Date:   Thu Mar 1 16:42:56 2018 -0700

    Finished JUnit Tests

commit 88797c1906f79e12fef4d6e2c45df561e71541c5
Author: Ross Starritt <rstarritt@mymail.mines.edu>
Date:   Thu Mar 1 16:18:06 2018 -0700

    wrote adjacency tests

commit 855124ef9edce9fc052ff292e4efe049e131dcbc
Author: Ross Starritt <rstarritt@mymail.mines.edu>
Date:   Tue Feb 27 16:41:38 2018 -0700

    Started to write tests. Not complete.

commit 4545618d55ef14408e141a4f9bd03f1ae5caec7f
Author: Samuel Warfield <warfield@mymail.mines.edu>
Date:   Tue Feb 27 16:23:56 2018 -0700

    Added empty methods

commit 0066dd6a0fbabb084555e5bb3a340863bbb6db4f
Author: Samuel Warfield <warfield@mymail.mines.edu>
Date:   Tue Feb 27 15:52:56 2018 -0700

    Added packages and

commit f667fda1df0e70b44916aefd787ea02785c4fc5b
Author: Samuel Warfield <warfield@mymail.mines.edu>
Date:   Tue Feb 27 15:47:17 2018 -0700

    Setup Java Pathes

commit 83bd6e010826b9ee88cdd7295a9e5bf0b46b3151
Author: Samuel Warfield <32973228+Warfields@users.noreply.github.com>
Date:   Tue Feb 27 15:40:41 2018 -0700

    Initial commit
